asgiref==3.3.1
astroid==2.4.2
colorama==0.4.4
dj-database-url==0.5.0
Django==3.1.5
django-ckeditor==6.0.0
django-cors-headers==3.7.0
django-heroku==0.3.1
django-js-asset==1.2.2
djangorestframework==3.12.2
gunicorn==20.0.4
isort==5.7.0
lazy-object-proxy==1.4.3
mccabe==0.6.1
Pillow==8.1.0
psycopg2==2.8.6
psycopg2-binary==2.8.6
pylint==2.6.0
pytz==2020.5
six==1.15.0
sqlparse==0.4.1
toml==0.10.2
waitress==2.0.0
whitenoise==5.2.0
wrapt==1.12.1
